{
  "world": {
    "numRows": 10,
    "numCols": 10,
    "maxOffset": 2,
    "bricks": [
      {
        "row": 0,
        "column": 5,
        "offset": 0,
        "type": "GROUND"
      },
      {
        "row": 1,
        "column": 5,
        "offset": 0,
        "type": "GROUND"
      },
      {
        "row": 2,
        "column": 5,
        "offset": 0,
        "type": "BREAKING"
      },
      {
        "row": 3,
        "column": 5,
        "offset": 0,
        "type": "GROUND"
      },
      {
        "row": 4,
        "column": 5,
        "offset": 0,
        "type": "GROUND"
      },
      {
        "row": 6,
        "column": 5,
        "offset": 0,
        "type": "GROUND"
      },
      {
        "row": 7,
        "column": 5,
        "offset": 0,
        "type": "GROUND"
      },
      {
        "row": 8,
        "column": 5,
        "offset": 0,
        "type": "GROUND"
      },
      {
        "row": 9,
        "column": 5,
        "offset": 0,
        "type": "GROUND"
      },
      {
        "row": 5,
        "column": 4,
        "offset": 0,
        "type": "GROUND"
      },
      {
        "row": 5,
        "column": 3,
        "offset": 0,
        "type": "GROUND"
      },
      {
        "row": 5,
        "column": 2,
        "offset": 0,
        "type": "GROUND"
      },
      {
        "row": 5,
        "column": 1,
        "offset": 0,
        "type": "GROUND"
      }
    ]
  },
  "dynamicGameState": {
    "startBrick": {
      "row": 0,
      "column": 5,
      "offset": 0,
      "type": "GROUND"
    },
    "startOrientation": [
      1.0,
      0.0,
      0.0
    ],
    "switchBricks": [
      {
        "row": 5,
        "column": 5,
        "offset": 0,
        "type": "SWITCH",
        "switches": [
          {
            "from": [
              1.0,
              0.0,
              0.0
            ],
            "to": [
              0.0,
              0.0,
              -1.0
            ]
          },
          {
            "from": [
              0.0,
              0.0,
              1.0
            ],
            "to": [
              1.0,
              0.0,
              0.0
            ]
          }
        ]
      },
      {
        "row": 5,
        "column": 0,
        "offset": 0,
        "type": "SWITCH",
        "switches": [
          {
            "from": [
              0.0,
              0.0,
              -1.0
            ],
            "to": [
              0.0,
              0.0,
              1.0
            ]
          }
        ]
      }
    ]
  },
  "enemies": [
    {
      "brick": {
        "row": 3,
        "column": 5,
        "offset": 0,
        "type": "NONE"
      }
    }
  ],
  "coins": [
    {
      "brick": {
        "row": 4,
        "column": 5,
        "offset": 0,
        "type": "NONE"
      }
    },
    {
      "brick": {
        "row": 8,
        "column": 5,
        "offset": 0,
        "type": "NONE"
      }
    }
  ]
}